<?xml version="1.0" encoding="utf-8"?>
<!-- Generator: Adobe Illustrator 16.0.4, SVG Export Plug-In . SVG Version: 6.00 Build 0)  -->
<!DOCTYPE svg PUBLIC "-//W3C//DTD SVG 1.1//EN" "http://www.w3.org/Graphics/SVG/1.1/DTD/svg11.dtd">
<svg version="1.1" id="Layer_1" xmlns="http://www.w3.org/2000/svg" xmlns:xlink="http://www.w3.org/1999/xlink" x="0px" y="0px"
	 width="174px" height="174px" viewBox="0 0 174 174" enable-background="new 0 0 174 174" xml:space="preserve">
<g>
	<polygon fill="#E03C31" points="85.72,119.549 53.971,130.902 53.971,43.414 85.72,54.766 	"/>
	<polygon fill="#E03C31" points="88.521,119.549 120.271,130.902 120.271,43.414 88.521,54.766 	"/>
</g>
<path fill="#E03C31" d="M149.138,25.398c-15.866-15.888-37.933-24.64-62.131-24.64c-23.749,0-45.824,9.159-62.161,25.794
	C8.904,42.787,0.352,64.267,0.764,87.042c0.518,28.498,9.175,50.564,25.738,65.595c14.854,13.481,35.775,20.604,60.505,20.604
	c26.755,0,49.007-8.754,64.353-25.318c14.08-15.203,21.854-36.838,21.891-60.92C173.283,62.535,164.947,41.234,149.138,25.398z
	 M87.007,156.495c-20.849,0-38.539-7.059-51.165-20.41c-11.819-12.5-18.329-29.932-18.329-49.084
	c0-12.91,7.942-30.257,20.235-44.187c19.43-22.021,39.203-25.309,49.259-25.309c13.22,0,30.694,7.943,44.521,20.24
	c16.105,14.326,24.977,31.818,24.977,49.253C156.502,118.477,125.502,156.495,87.007,156.495z"/>
</svg>
